{
  "extras": [
    "lazyvim.plugins.extras.ai.codeium",
    "lazyvim.plugins.extras.dap.core",
    "lazyvim.plugins.extras.lang.clangd",
    "lazyvim.plugins.extras.lang.cmake",
    "lazyvim.plugins.extras.lang.python",
    "lazyvim.plugins.extras.lang.rust"
  ],
  "install_version": 8,
  "news": {
    "NEWS.md": "10960"
  },
  "version": 8
}